{
  "iisSettings": {
    "windowsAuthentication": false,
    "anonymousAuthentication": true,
    "iisExpress": {
      "applicationUrl": "https://localhost:5001",
      "sslPort": 50001
    }
  },
  "profiles": {
    "self hosting": {
      "commandName": "Project",
      "environmentVariables": {
        "MTT_ALLOW_ORIGIN": "http://localhost:5000",
        "ASPNETCORE_ENVIRONMENT": "Development"
      },
      "applicationUrl": "https://localhost:5001"
    }
  }
}
